<?xml version="1.0" encoding="UTF-8" standalone="no"?>
<svg
   xmlns:dc="http://purl.org/dc/elements/1.1/"
   xmlns:cc="http://creativecommons.org/ns#"
   xmlns:rdf="http://www.w3.org/1999/02/22-rdf-syntax-ns#"
   xmlns:svg="http://www.w3.org/2000/svg"
   xmlns="http://www.w3.org/2000/svg"
   id="svg8"
   version="1.1"
   viewBox="0 0 122.70191 122.7019"
   height="122.7019mm"
   width="122.7019mm">
  <defs
     id="defs2" />
  <metadata
     id="metadata5">
    <rdf:RDF>
      <cc:Work
         rdf:about="">
        <dc:format>image/svg+xml</dc:format>
        <dc:type
           rdf:resource="http://purl.org/dc/dcmitype/StillImage" />
        <dc:title></dc:title>
      </cc:Work>
    </rdf:RDF>
  </metadata>
  <g
     transform="translate(-40.18966,-65.356668)"
     id="layer1">
    <circle
       r="56.191299"
       cy="126.70762"
       cx="101.54061"
       id="path871"
       style="fill:#f0f0f0;fill-opacity:1;stroke:#474747;stroke-width:10.31930351;stroke-linecap:square;stroke-linejoin:miter;stroke-miterlimit:4;stroke-dasharray:none;stroke-opacity:1;paint-order:normal" />
    <path
       id="path873-3"
       d="M 66.577812,126.70762 H 136.50341"
       style="fill:none;stroke:#474747;stroke-width:8.5175705;stroke-linecap:butt;stroke-linejoin:miter;stroke-miterlimit:4;stroke-dasharray:none;stroke-opacity:1" />
    <path
       id="path873-3-5"
       d="M 66.577812,148.44125 H 136.50341"
       style="fill:none;stroke:#474747;stroke-width:8.5175705;stroke-linecap:butt;stroke-linejoin:miter;stroke-miterlimit:4;stroke-dasharray:none;stroke-opacity:1" />
    <path
       id="path873-3-6"
       d="m 66.57781,104.97399 h 69.9256"
       style="fill:none;stroke:#474747;stroke-width:8.5175705;stroke-linecap:butt;stroke-linejoin:miter;stroke-miterlimit:4;stroke-dasharray:none;stroke-opacity:1" />
  </g>
</svg>
