<?xml version="1.0" encoding="UTF-8" standalone="no"?>
<!-- Created with Inkscape (http://www.inkscape.org/) -->

<svg
   xmlns:dc="http://purl.org/dc/elements/1.1/"
   xmlns:cc="http://creativecommons.org/ns#"
   xmlns:rdf="http://www.w3.org/1999/02/22-rdf-syntax-ns#"
   xmlns:svg="http://www.w3.org/2000/svg"
   xmlns="http://www.w3.org/2000/svg"
   xmlns:sodipodi="http://sodipodi.sourceforge.net/DTD/sodipodi-0.dtd"
   xmlns:inkscape="http://www.inkscape.org/namespaces/inkscape"
   width="120.00863mm"
   height="120.00863mm"
   viewBox="0 0 120.00863 120.00863"
   version="1.1"
   id="svg8"
   inkscape:version="0.92.2 5c3e80d, 2017-08-06"
   sodipodi:docname="no_pp.svg">
  <defs
     id="defs2" />
  <sodipodi:namedview
     id="base"
     pagecolor="#ffffff"
     bordercolor="#666666"
     borderopacity="1.0"
     inkscape:pageopacity="0.0"
     inkscape:pageshadow="2"
     inkscape:zoom="0.7"
     inkscape:cx="113.36801"
     inkscape:cy="192.6107"
     inkscape:document-units="mm"
     inkscape:current-layer="layer1"
     showgrid="false"
     inkscape:snap-bbox="true"
     inkscape:snap-bbox-edge-midpoints="true"
     inkscape:snap-object-midpoints="true"
     inkscape:snap-center="true"
     fit-margin-top="0"
     fit-margin-left="0"
     fit-margin-right="0"
     fit-margin-bottom="0"
     inkscape:window-width="1588"
     inkscape:window-height="872"
     inkscape:window-x="1371"
     inkscape:window-y="5"
     inkscape:window-maximized="1" />
  <metadata
     id="metadata5">
    <rdf:RDF>
      <cc:Work
         rdf:about="">
        <dc:format>image/svg+xml</dc:format>
        <dc:type
           rdf:resource="http://purl.org/dc/dcmitype/StillImage" />
        <dc:title></dc:title>
      </cc:Work>
    </rdf:RDF>
  </metadata>
  <g
     inkscape:label="Layer 1"
     inkscape:groupmode="layer"
     id="layer1"
     transform="translate(-49.797762,-40.826052)">
    <circle
       style="fill:#d8d8d8;fill-opacity:1;stroke:#949494;stroke-width:3.21399999;stroke-linecap:square;stroke-linejoin:miter;stroke-miterlimit:4;stroke-dasharray:none;stroke-opacity:1;paint-order:normal"
       id="path4536"
       cx="109.80208"
       cy="100.83037"
       r="58.397316" />
    <g
       id="g4534"
       style="fill:#949494;fill-opacity:1"
       transform="translate(0,-0.7559517)">
      <path
         transform="scale(-1)"
         d="m -79.941959,-134.09227 a 29.860119,33.261906 0 0 1 -14.93006,28.80566 29.860119,33.261906 0 0 1 -29.860121,-1e-5 29.860119,33.261906 0 0 1 -14.93006,-28.80565 l 29.86012,0 z"
         sodipodi:end="3.1415927"
         sodipodi:start="0"
         sodipodi:ry="33.261906"
         sodipodi:rx="29.860119"
         sodipodi:cy="-134.09227"
         sodipodi:cx="-109.80208"
         sodipodi:type="arc"
         id="path4518"
         style="fill:#949494;fill-opacity:1;stroke:none;stroke-width:14.77390575;stroke-linecap:square;stroke-linejoin:miter;stroke-miterlimit:4;stroke-dasharray:none;stroke-opacity:1;paint-order:normal" />
      <circle
         r="15.875"
         cy="84.955368"
         cx="109.80208"
         id="path4522"
         style="fill:#949494;fill-opacity:1;stroke:none;stroke-width:15.63699913;stroke-linecap:square;stroke-linejoin:miter;stroke-miterlimit:4;stroke-dasharray:none;stroke-opacity:1;paint-order:normal" />
    </g>
  </g>
</svg>
